Stats 1 PISA assignment
…
Round 5 now we will remove ‘father_educ.’

# A tibble: 21 × 2
   call                                               adj.r.squared
   <chr>                                                      <dbl>
 1 math ~ room + computer                                0.000285  
 2 math ~ computer                                       0.000161  
 3 math ~ room                                           0.000105  
 4 math ~ room + computer + father_educ                  0.0000499 
 5 math ~ computer + father_educ                         0.00000625
 6 math ~ room + computer + mother_educ                 -0.0000825 
 7 math ~ room + father_educ                            -0.000156  
 8 math ~ room + computer + father_educ + mother_educ   -0.000364  
 9 math ~ computer + father_educ + mother_educ          -0.000419  
10 math ~ room + father_educ + mother_educ              -0.000590  
# ℹ 11 more rows
…
